<svg xmlns="http://www.w3.org/2000/svg" width="86" height="46" viewBox="0 0 86 46">
  <polygon points="43 45.188 45.688 42.781 85.688 6.781 80.313 .813 43 34.406 5.687 .813 .312 6.781 40.312 42.781"/>
</svg>
