<svg width="13" height="18" viewBox="0 0 13 18" xmlns="http://www.w3.org/2000/svg">
<path d="M7.40479 13.3913C8.77462 12.4585 9.58054 12.2405 11.4271 13.521C13.4939 14.9546 13.8775 16.5968 10.4027 18C3.60181 17.4367 -2.13746 7.45319 0.777279 1.25618C3.72388 -1.06422 4.94896 0.0897839 5.15128 2.60463C5.33252 4.85063 4.74134 5.44283 3.25171 6.16783C3.45628 8.88263 5.16528 11.8554 7.40407 13.3904L7.40479 13.3913Z"/>
</svg>
