<svg width="29" height="22" viewBox="0 0 29 22" xmlns="http://www.w3.org/2000/svg">
<path d="M6.59961 0.443359H22.8979V6.71032H6.59961V0.443359Z" />
<path d="M7.14551 17.2278V19.9507H22.3581V16.1079H7.14551V17.2278Z" />
<path d="M26.2703 7.66523H3.22556C1.72721 7.66523 0.5 8.66718 0.5 9.89835V19.4582C0.5 20.6815 1.72724 21.6913 3.22556 21.6913H26.2666C27.7689 21.6913 28.9987 20.6815 28.9987 19.4582L29 9.89566C29.0039 8.66842 27.7727 7.66519 26.2705 7.66519L26.2703 7.66523ZM24.5401 17.2278H23.4478V21.0471H6.05175V17.2278H4.95943C4.30849 17.2278 3.77545 16.6947 3.77545 16.0412C3.77545 15.3876 4.30457 14.8545 4.95943 14.8545H24.5399C25.1934 14.8545 25.7265 15.3836 25.7265 16.0412C25.7239 16.6947 25.1935 17.2278 24.5399 17.2278H24.5401Z" />
</svg>
